[gd_scene load_steps=5 format=2]

[ext_resource path="res://Resources/Sprites/placeholder.png" type="Texture" id=1]
[ext_resource path="res://Shaders/motion_blur.shader" type="Shader" id=2]
[ext_resource path="res://Scripts/Slot/Componets/Icon.gd" type="Script" id=3]

[sub_resource type="ShaderMaterial" id=1]
shader = ExtResource( 2 )
shader_param/blur = 0.0

[node name="Icon" type="TextureRect" groups=[
"icon_group",
]]
material = SubResource( 1 )
margin_right = 30.0
margin_bottom = 30.0
size_flags_horizontal = 4
texture = ExtResource( 1 )
expand = true
stretch_mode = 4
script = ExtResource( 3 )
__meta__ = {
"_edit_use_anchors_": false
}

[node name="Tween" type="Tween" parent="."]
